newscatcheR
…
# adding a small time delay to avoid simultaneous posts to the API
Sys.sleep(3)
get_news(website = "news.ycombinator.com")
#> GET request successful. Parsing...
#> Warning: Predicate functions must be wrapped in `where()`.
#> 
#>   # Bad
#>   data %>% select(is.character)
#> 
#>   # Good
#>   data %>% select(where(is.character))
#> 
#> ℹ Please update your code.
#> This message is displayed once per session.
#> # A tibble: 30 x 10
#>    feed_title feed_link feed_description feed_pub_date       item_title
#>    <chr>      <chr>     <chr>            <dttm>              <chr>     
#>  1 Hacker Ne… https://… Links for the i… 2020-06-05 13:42:29 There Are…
#>  2 Hacker Ne… https://… Links for the i… 2020-06-05 13:42:29 SimRefine…
#>  3 Hacker Ne… https://… Links for the i… 2020-06-05 13:42:29 Why Is th…
#>  4 Hacker Ne… https://… Links for the i… 2020-06-05 13:42:29 Mental We…
#>  5 Hacker Ne… https://… Links for the i… 2020-06-05 13:42:29 Google2Cs…
#>  6 Hacker Ne… https://… Links for the i… 2020-06-05 13:42:29 People tr…
#>  7 Hacker Ne… https://… Links for the i… 2020-06-05 13:42:29 Ask HN: H…
#>  8 Hacker Ne… https://… Links for the i… 2020-06-05 13:42:29 Julia as …
#>  9 Hacker Ne… https://… Links for the i… 2020-06-05 13:42:29 First pho…
#> 10 Hacker Ne… https://… Links for the i… 2020-06-05 13:42:29 High-Spee…
#> # … with 20 more rows, and 5 more variables: item_link <chr>,
#> #   item_description <chr>, item_pub_date <dttm>, item_category <list>,
#> #   item_comments <chr>
…
tld_sources()

The function tld_sources is a helper function for browsing news sites by top level domains. It’s useful to see which news sites from a country are present in the database.

tld_sources("de")
#> # A tibble: 40 x 2
#>    url                 rss_endpoint                                             
#>    <chr>               <chr>                                                    
#>  1 spiegel.de          https://www.spiegel.de/international/index.rss           
#>  2 zeit.de             http://newsfeed.zeit.de/index                            
#>  3 thelocal.de         https://www.thelocal.de/feeds/rss.php                    
#>  4 deutschland.de      https://www.deutschland.de/en/feed-news/rss.xml          
#>  5 raccoon.onyxbits.de https://raccoon.onyxbits.de/blog/index.xml               
#>  6 abendblatt.de       http://www.abendblatt.de/?service=Rss                    
#>  7 berliner-zeitung.de https://www.berliner-zeitung.de/feed/index.rss           
#>  8 bild.de             http://www.bild.de/rss-feeds/rss-16725492,feed=home.bild…
#>  9 bz-berlin.de        http://www.bz-berlin.de/rss                              
#> 10 capital.de          http://www.capital.de/rss                                
#> # … with 30 more rows
…
Assuming we have the news sites we want to follow:

sites = c("bbc.com", "spiegel.de", "washingtonpost.com")

We can get a list of data frames with:

lapply(sites, get_news)
#> GET request successful. Parsing...
#> 
#> GET request successful. Parsing...
#> 
#> GET request successful. Parsing...
#> [[1]]
#> # A tibble: 35 x 14
#>    feed_title feed_link feed_description feed_language feed_pub_date      
#>    <chr>      <chr>     <chr>            <chr>         <dttm>             
#>  1 BBC News … https://… BBC News - World en-gb         2020-06-05 12:01:05
#>  2 BBC News … https://… BBC News - World en-gb         2020-06-05 12:01:05
#>  3 BBC News … https://… BBC News - World en-gb         2020-06-05 12:01:05
#>  4 BBC News … https://… BBC News - World en-gb         2020-06-05 12:01:05
#>  5 BBC News … https://… BBC News - World en-gb         2020-06-05 12:01:05
#>  6 BBC News … https://… BBC News - World en-gb         2020-06-05 12:01:05
#>  7 BBC News … https://… BBC News - World en-gb         2020-06-05 12:01:05
#>  8 BBC News … https://… BBC News - World en-gb         2020-06-05 12:01:05
#>  9 BBC News … https://… BBC News - World en-gb         2020-06-05 12:01:05
#> 10 BBC News … https://… BBC News - World en-gb         2020-06-05 12:01:05
#> # … with 25 more rows, and 9 more variables: feed_last_build_date <dttm>,
#> #   feed_generator <chr>, feed_ttl <chr>, item_title <chr>, item_link <chr>,
#> #   item_description <chr>, item_pub_date <dttm>, item_guid <chr>,
#> #   item_category <list>
…
#> 12 DER SPIEG… https://… Deutschlands fü… de            2020-06-05 16:44:07
#> 13 DER SPIEG… https://… Deutschlands fü… de            2020-06-05 16:44:07
#> 14 DER SPIEG… https://… Deutschlands fü… de            2020-06-05 16:44:07
#> 15 DER SPIEG… https://… Deutschlands fü… de            2020-06-05 16:44:07
#> 16 DER SPIEG… https://… Deutschlands fü… de            2020-06-05 16:44:07
#> 17 DER SPIEG… https://… Deutschlands fü… de            2020-06-05 16:44:07
#> 18 DER SPIEG… https://… Deutschlands fü… de            2020-06-05 16:44:07
#> 19 DER SPIEG… https://… Deutschlands fü… de            2020-06-05 16:44:07
#> 20 DER SPIEG… https://… Deutschlands fü… de            2020-06-05 16:44:07
#> # … with 7 more variables: feed_last_build_date <dttm>, item_title <chr>,
#> #   item_link <chr>, item_description <chr>, item_pub_date <dttm>,
#> #   item_guid <chr>, item_category <list>
#> 
#> [[3]]
#> # A tibble: 26 x 11
#>    feed_title feed_link feed_description feed_language feed_pub_date      
#>    <chr>      <chr>     <chr>            <chr>         <dttm>             
#>  1 World      http://w… The Washington … en-US         2020-06-05 08:01:43
#>  2 World      http://w… The Washington … en-US         2020-06-05 08:01:43
#>  3 World      http://w… The Washington … en-US         2020-06-05 08:01:43
#>  4 World      http://w… The Washington … en-US         2020-06-05 08:01:43
#>  5 World      http://w… The Washington … en-US         2020-06-05 08:01:43
#>  6 World      http://w… The Washington … en-US         2020-06-05 08:01:43
#>  7 World      http://w… The Washington … en-US         2020-06-05 08:01:43
#>  8 World      http://w… The Washington … en-US         2020-06-05 08:01:43
#>  9 World      http://w… The Washington … en-US         2020-06-05 08:01:43
#> 10 World      http://w… The Washington … en-US         2020-06-05 08:01:43
#> # … with 16 more rows, and 6 more variables: item_title <chr>, item_link <chr>,
#> #   item_description <chr>, item_pub_date <dttm>, item_guid <chr>,
#> #   item_category <list>
